{
  "page": 1,
  "total_results": 10000,
  "total_pages": 500,
  "results": [
    {
      "popularity": 2553.431,
      "vote_count": 37,
      "video": false,
      "poster_path": "/ugZW8ocsrfgI95pnQ7wrmKDxIe.jpg",
      "id": 724989,
      "adult": false,
      "backdrop_path": "/86L8wqGMDbwURPni2t7FQ0nDjsH.jpg",
      "original_language": "en",
      "original_title": "Hard Kill",
      "genre_ids": [
        28,
        53
      ],
      "title": "Hard Kill",
      "vote_average": 4.3,
      "overview": "The work of billionaire tech CEO Donovan Chalmers is so valuable that he hires mercenaries to protect it, and a terrorist group kidnaps his daughter just to get it.",
      "release_date": "2020-10-23"
    },
    {
      "popularity": 2635.509,
      "vote_count": 388,
      "video": false,
      "poster_path": "/betExZlgK0l7CZ9CsCBVcwO1OjL.jpg",
      "id": 531219,
      "adult": false,
      "backdrop_path": "/8rIoyM6zYXJNjzGseT3MRusMPWl.jpg",
      "original_language": "en",
      "original_title": "Roald Dahl's The Witches",
      "genre_ids": [
        14,
        10751,
        12,
        35,
        27
      ],
      "title": "Roald Dahl's The Witches",
      "vote_average": 7.2,
      "overview": "In late 1967, a young orphaned boy goes to live with his loving grandma in the rural Alabama town of Demopolis. As the boy and his grandmother encounter some deceptively glamorous but thoroughly diabolical witches, she wisely whisks him away to a seaside resort. Regrettably, they arrive at precisely the same time that the world's Grand High Witch has gathered.",
      "release_date": "2020-10-26"
    },
    {
      "popularity": 1867.104,
      "vote_count": 217,
      "video": false,
      "poster_path": "/7D430eqZj8y3oVkLFfsWXGRcpEG.jpg",
      "id": 528085,
      "adult": false,
      "backdrop_path": "/5UkzNSOK561c2QRy2Zr4AkADzLT.jpg",
      "original_language": "en",
      "original_title": "2067",
      "genre_ids": [
        18,
        878,
        53
      ],
      "title": "2067",
      "vote_average": 5.2,
      "overview": "A lowly utility worker is called to the future by a mysterious radio signal, he must leave his dying wife to embark on a journey that will force him to face his deepest fears in an attempt to change the fabric of reality and save humankind from its greatest environmental crisis yet.",
      "release_date": "2020-10-01"
    },
    {
      "popularity": 820.437,
      "vote_count": 3,
      "video": false,
      "poster_path": "/eHFJ15cZ1pfk60XTcTl9GYxnhf6.jpg",
      "id": 733278,
      "adult": false,
      "backdrop_path": "/bMrYAvAE5MalHKglxAKduqV5S4k.jpg",
      "original_language": "en",
      "original_title": "Picture Perfect Mysteries: Exit Stage Death",
      "genre_ids": [],
      "title": "Picture Perfect Mysteries: Exit Stage Death",
      "vote_average": 5.3,
      "overview": "While backstage on opening night of a new play by celebrated murder mystery author/director Neil Khan, photographer Allie Adams discovers the body of the show’s leading lady, murdered before the curtain went up. As Willow Haven PD Detective Sam Acosta launches his investigation, he invites Allie – who has been helpful in solving his first two murder cases since joining the force -- to unofficially assist him on the. case. However, Allie’s involvement makes her a target for murder herself when she gets too close to the truth.",
      "release_date": "2020-10-11"
    },
    {
      "popularity": 1123.517,
      "vote_count": 2338,
      "video": false,
      "poster_path": "/riYInlsq2kf1AWoGm80JQW5dLKp.jpg",
      "id": 497582,
      "adult": false,
      "backdrop_path": "/kMe4TKMDNXTKptQPAdOF0oZHq3V.jpg",
      "original_language": "en",
      "original_title": "Enola Holmes",
      "genre_ids": [
        80,
        18,
        9648
      ],
      "title": "Enola Holmes",
      "vote_average": 7.6,
      "overview": "While searching for her missing mother, intrepid teen Enola Holmes uses her sleuthing skills to outsmart big brother Sherlock and help a runaway lord.",
      "release_date": "2020-09-23"
    },
    {
      "popularity": 1091.472,
      "vote_count": 559,
      "video": false,
      "poster_path": "/6agKYU5IQFpuDyUYPu39w7UCRrJ.jpg",
      "id": 740985,
      "adult": false,
      "backdrop_path": "/hbrXbVoE0NuA1ORoSGGYNASagrl.jpg",
      "original_language": "en",
      "original_title": "Borat Subsequent Moviefilm",
      "genre_ids": [
        35
      ],
      "title": "Borat Subsequent Moviefilm",
      "vote_average": 6.8,
      "overview": "14 years after making a film about his journey across the USA, Borat risks life and limb when he returns to the United States with his young daughter, and reveals more about the culture, the COVID-19 pandemic, and the political elections.",
      "release_date": "2020-10-23"
    },
    {
      "popularity": 1113.175,
      "vote_count": 130,
      "video": false,
      "poster_path": "/elZ6JCzSEvFOq4gNjNeZsnRFsvj.jpg",
      "id": 741067,
      "adult": false,
      "backdrop_path": "/aO5ILS7qnqtFIprbJ40zla0jhpu.jpg",
      "original_language": "en",
      "original_title": "Welcome to Sudden Death",
      "genre_ids": [
        28,
        12,
        18,
        53
      ],
      "title": "Welcome to Sudden Death",
      "vote_average": 6.4,
      "overview": "Jesse Freeman is a former special forces officer and explosives expert now working a regular job as a security guard in a state-of-the-art basketball arena. Trouble erupts when a tech-savvy cadre of terrorists kidnap the team's owner and Jesse's daughter during opening night. Facing a ticking clock and impossible odds, it's up to Jesse to not only save them but also a full house of fans in this highly charged action thriller.",
      "release_date": "2020-09-29"
    },
    {
      "popularity": 914.277,
      "vote_count": 27,
      "video": false,
      "poster_path": "/h8Rb9gBr48ODIwYUttZNYeMWeUU.jpg",
      "id": 635302,
      "adult": false,
      "backdrop_path": "/xoqr4dMbRJnzuhsWDF3XNHQwJ9x.jpg",
      "original_language": "ja",
      "original_title": "劇場版「鬼滅の刃」無限列車編",
      "genre_ids": [
        16,
        28,
        36,
        12,
        14,
        18
      ],
      "title": "Demon Slayer: Kimetsu no Yaiba - The Movie: Mugen Train",
      "vote_average": 7.1,
      "overview": "Tanjirō Kamado, joined with Inosuke Hashibira, a boy raised by boars who wears a boar's head, and Zenitsu Agatsuma, a scared boy who reveals his true power when he sleeps, boards the Infinity Train on a new mission with the Fire Hashira, Kyōjurō Rengoku, to defeat a demon who has been tormenting the people and killing the demon slayers who oppose it!",
      "release_date": "2020-10-16"
    },
    {
      "popularity": 774.602,
      "vote_count": 234,
      "video": false,
      "poster_path": "/r4Lm1XKP0VsTgHX4LG4syAwYA2I.jpg",
      "id": 590223,
      "adult": false,
      "backdrop_path": "/lA5fOBqTOQBQ1s9lEYYPmNXoYLi.jpg",
      "original_language": "en",
      "original_title": "Love and Monsters",
      "genre_ids": [
        28,
        12,
        35,
        878
      ],
      "title": "Love and Monsters",
      "vote_average": 7.7,
      "overview": "Seven years after the Monsterpocalypse, Joel Dawson, along with the rest of humanity, has been living underground ever since giant creatures took control of the land. After reconnecting over radio with his high school girlfriend Aimee, who is now 80 miles away at a coastal colony, Joel begins to fall for her again. As Joel realizes that there’s nothing left for him underground, he decides against all logic to venture out to Aimee, despite all the dangerous monsters that stand in his way.",
      "release_date": "2020-10-16"
    },
    {
      "popularity": 704.247,
      "vote_count": 327,
      "video": false,
      "poster_path": "/uOw5JD8IlD546feZ6oxbIjvN66P.jpg",
      "id": 718444,
      "adult": false,
      "backdrop_path": "/x4UkhIQuHIJyeeOTdcbZ3t3gBSa.jpg",
      "original_language": "en",
      "original_title": "Rogue",
      "genre_ids": [
        28,
        12,
        18,
        53
      ],
      "title": "Rogue",
      "vote_average": 5.8,
      "overview": "Battle-hardened O’Hara leads a lively mercenary team of soldiers on a daring mission: rescue hostages from their captors in remote Africa. But as the mission goes awry and the team is stranded, O’Hara’s squad must face a bloody, brutal encounter with a gang of rebels.",
      "release_date": "2020-08-20"
    },
    {
      "popularity": 672.563,
      "vote_count": 554,
      "video": false,
      "poster_path": "/qzA87Wf4jo1h8JMk9GilyIYvwsA.jpg",
      "id": 539885,
      "adult": false,
      "backdrop_path": "/54yOImQgj8i85u9hxxnaIQBRUuo.jpg",
      "original_language": "en",
      "original_title": "Ava",
      "genre_ids": [
        28,
        80,
        18,
        53
      ],
      "title": "Ava",
      "vote_average": 5.8,
      "overview": "A black ops assassin is forced to fight for her own survival after a job goes dangerously wrong.",
      "release_date": "2020-07-02"
    },
    {
      "popularity": 752.84,
      "vote_count": 2695,
      "video": false,
      "poster_path": "/aKx1ARwG55zZ0GpRvU2WrGrCG9o.jpg",
      "id": 337401,
      "adult": false,
      "backdrop_path": "/zzWGRw277MNoCs3zhyG3YmYQsXv.jpg",
      "original_language": "en",
      "original_title": "Mulan",
      "genre_ids": [
        28,
        12,
        18,
        14
      ],
      "title": "Mulan",
      "vote_average": 7.2,
      "overview": "When the Emperor of China issues a decree that one man per family must serve in the Imperial Chinese Army to defend the country from Huns, Hua Mulan, the eldest daughter of an honored warrior, steps in to take the place of her ailing father. She is spirited, determined and quick on her feet. Disguised as a man by the name of Hua Jun, she is tested every step of the way and must harness her innermost strength and embrace her true potential.",
      "release_date": "2020-09-04"
    },
    {
      "popularity": 636.393,
      "vote_count": 687,
      "video": false,
      "poster_path": "/sy6DvAu72kjoseZEjocnm2ZZ09i.jpg",
      "id": 581392,
      "adult": false,
      "backdrop_path": "/2nFzxaAK7JIsk6l7qZ8rFBsa3yW.jpg",
      "original_language": "ko",
      "original_title": "반도",
      "genre_ids": [
        28,
        27,
        53
      ],
      "title": "Peninsula",
      "vote_average": 7,
      "overview": "A soldier and his team battle hordes of post-apocalyptic zombies in the wastelands of the Korean Peninsula.",
      "release_date": "2020-07-15"
    },
    {
      "popularity": 572.796,
      "vote_count": 1201,
      "video": false,
      "poster_path": "/kiX7UYfOpYrMFSAGbI6j1pFkLzQ.jpg",
      "id": 613504,
      "adult": false,
      "backdrop_path": "/6hgItrYQEG33y0I7yP2SRl2ei4w.jpg",
      "original_language": "en",
      "original_title": "After We Collided",
      "genre_ids": [
        10749,
        18
      ],
      "title": "After We Collided",
      "vote_average": 7.3,
      "overview": "Tessa finds herself struggling with her complicated relationship with Hardin; she faces a dilemma that could change their lives forever.",
      "release_date": "2020-09-02"
    },
    {
      "popularity": 647.033,
      "vote_count": 159,
      "video": false,
      "poster_path": "/6CoRTJTmijhBLJTUNoVSUNxZMEI.jpg",
      "id": 694919,
      "adult": false,
      "backdrop_path": "/pq0JSpwyT2URytdFG0euztQPAyR.jpg",
      "original_language": "en",
      "original_title": "Money Plane",
      "genre_ids": [
        28
      ],
      "title": "Money Plane",
      "vote_average": 5.9,
      "overview": "A professional thief with $40 million in debt and his family's life on the line must commit one final heist - rob a futuristic airborne casino filled with the world's most dangerous criminals.",
      "release_date": "2020-09-29"
    },
    {
      "popularity": 784.687,
      "vote_count": 199,
      "video": false,
      "poster_path": "/lQfdytwN7eh0tXWjIiMceFdBBvD.jpg",
      "id": 560050,
      "adult": false,
      "backdrop_path": "/htBUhLSS7FfHtydgYxUWjL3J1Q1.jpg",
      "original_language": "en",
      "original_title": "Over the Moon",
      "genre_ids": [
        16,
        12,
        10751,
        14
      ],
      "title": "Over the Moon",
      "vote_average": 7.9,
      "overview": "A girl builds a rocket to travel to the moon in hopes of meeting the legendary Moon Goddess.",
      "release_date": "2020-10-16"
    },
    {
      "popularity": 614.275,
      "vote_count": 81,
      "video": false,
      "poster_path": "/bkld8Me0WiLWipLORRNfF1yIPHu.jpg",
      "id": 624963,
      "adult": false,
      "backdrop_path": "/ezLKohe4HKsHQbwQwhv0ARo83NC.jpg",
      "original_language": "en",
      "original_title": "A Babysitter's Guide to Monster Hunting",
      "genre_ids": [
        12,
        35,
        14,
        10751
      ],
      "title": "A Babysitter's Guide to Monster Hunting",
      "vote_average": 6.1,
      "overview": "Recruited by a secret society of babysitters, a high schooler battles the Boogeyman and his monsters when they nab the boy she's watching on Halloween.",
      "release_date": "2020-10-14"
    },
    {
      "popularity": 671.473,
      "vote_count": 58,
      "video": false,
      "poster_path": "/5aL71e0XBgHZ6zdWcWeuEhwD2Gw.jpg",
      "id": 721656,
      "adult": false,
      "backdrop_path": "/5gTQmnGYKxDfmUWJ9GUWqrszRxN.jpg",
      "original_language": "en",
      "original_title": "Happy Halloween Scooby-Doo!",
      "genre_ids": [
        16,
        10751,
        9648,
        35,
        80
      ],
      "title": "Happy Halloween Scooby-Doo!",
      "vote_average": 8.1,
      "overview": "Scooby-Doo and the gang team up with their pals, Bill Nye The Science Guy and Elvira Mistress of the Dark, to solve this mystery of gigantic proportions and save Crystal Cove!",
      "release_date": "2020-10-06"
    },
    {
      "popularity": 743.018,
      "vote_count": 70,
      "video": false,
      "poster_path": "/xqbQtMffXwa3oprse4jiHBMBvdW.jpg",
      "id": 601844,
      "adult": false,
      "backdrop_path": "/qTrpw2ZUvN7ywUu1kieEsvNDrgQ.jpg",
      "original_language": "en",
      "original_title": "Becky",
      "genre_ids": [
        53,
        28,
        27
      ],
      "title": "Becky",
      "vote_average": 5.5,
      "overview": "A teenager's weekend at a lake house with her father takes a turn for the worse when a group of convicts wreaks havoc on their lives.",
      "release_date": "2020-07-23"
    },
    {
      "popularity": 565.616,
      "vote_count": 225,
      "video": false,
      "poster_path": "/vJHSParlylICnI7DuuI54nfTPRR.jpg",
      "id": 438396,
      "adult": false,
      "backdrop_path": "/qGZe9qTuydxyJYQ60XDtEckzLR8.jpg",
      "original_language": "es",
      "original_title": "Orígenes secretos",
      "genre_ids": [
        18,
        53
      ],
      "title": "Unknown Origins",
      "vote_average": 6.2,
      "overview": "In Madrid, Spain, a mysterious serial killer ruthlessly murders his victims by recreating the first appearance of several comic book superheroes. Cosme, a veteran police inspector who is about to retire, works on the case along with the tormented inspector David Valentín and his own son Jorge Elías, a nerdy young man who owns a comic book store.",
      "release_date": "2020-08-28"
    }
  ]
}